-----BEGIN PGP MESSAGE-----
Version: LibTMCG 1.3.14

wf8AAABeA6hbq6I8xUd8EgEHQHYhXldB/igMH312XPFzQHXX0gCdC+C6gC3nHKNZ
5NZIMHv9W877FIJWb7804ARi/vEMefZaWNijboBN7d4/wbISihYeINB9tkLNGPlM
DXJyq9L/AAAASgG1tfexgpAtRmDAtCyegpHHJZft7Az3opyFIWBfsY+Eze+1oM2L
xdSbvI1OwyMBaESl+OtRtcflO228zXnLt1C1xw2UCk5ZTjST
=6z21
-----END PGP MESSAGE-----
