-----BEGIN PGP MESSAGE-----
Version: LibTMCG 1.3.14

wf8AAABeA+MgSgbdXFPNEgEHQNyxZtPFl8iKt0671IwHdDDT57Uzffi5oRJ4lLu3
aOBtMMt+Rq7f7U9u5veBjP6La84EZnRLUYJRaFGfcvy5zCO/FOC+m4qzkmO6kYAT
/zdLfMH/AAAAXgMkvgZXdRHdYhIBB0ACWyLYOEeIlEGlEUlGhpCHt9ZS708mvqvH
obvTKnExDjBz6BmMlxnbVs5MLVsrDLvQDDBpAPcbwuERu5hmUBPQg82EkF7czIm6
P3AvajoyhBDS/wAAAEoB3bnRU8nYVvlBCaMkTa4ZrSkb9/Zx6bWiP7X524D+FycA
tULNBME8+liJ6isT14njqzfeNHwmubMw3Lzlous2+zzicSfeZf+drw==
=7fnd
-----END PGP MESSAGE-----
