[ Error: Invalid key: need at least key and user ID packet
      at new Key (C:\Workspaces\Projects\weird-keys\openpgpjs\node_modules\openpgp\dist\openpgp.js:39753:11)
      at read (C:\Workspaces\Projects\weird-keys\openpgpjs\node_modules\openpgp\dist\openpgp.js:42049:22)
      at Object.readArmored (C:\Workspaces\Projects\weird-keys\openpgpjs\node_modules\openpgp\dist\openpgp.js:42076:12)
      at Object.<anonymous> (C:\Workspaces\Projects\weird-keys\openpgpjs\encrypt-using.js:4:28)
      at Module._compile (module.js:569:30)
      at Object.Module._extensions..js (module.js:580:10)
      at Module.load (module.js:503:32)
      at tryModuleLoad (module.js:466:12)
      at Function.Module._load (module.js:458:3)
      at Function.Module.runMain (module.js:605:10) ]
